<svg width="35" height="35" viewBox="0 0 35 35" fill="none" xmlns="http://www.w3.org/2000/svg">
<rect x="1" y="1" width="33" height="33" rx="4" stroke="#D70E29" stroke-width="2" stroke-linejoin="round"/>
</svg>
